<mxfile modified="2020-09-12T23:47:16.982Z" host="app.diagrams.net" agent="5.0 (X11)" etag="w27qbEXL594H1is_njTg" version="13.6.10" type="gitlab">
  <diagram id="Ht1M8jgEwFfnCIfOTk4-" name="Page-1">
    <mxGraphModel dx="1422" dy="831" grid="1" gridSize="10" guides="1" tooltips="1" connect="1" arrows="1" fold="1" page="1" pageScale="1" pageWidth="1169" pageHeight="827" math="0" shadow="0">
      <root>
        <mxCell id="0" />
        <mxCell id="1" parent="0" />
        <mxCell id="_dnJrvxi_9dL4k15Kr0J-23" value="&lt;div style=&quot;font-size: 16px;&quot;&gt;Itaú&lt;/div&gt;" style="rounded=0;whiteSpace=wrap;html=1;fontSize=16;align=left;verticalAlign=top;fillColor=#ffe6cc;strokeColor=#d79b00;fontStyle=1" parent="1" vertex="1">
          <mxGeometry x="100" y="100" width="240" height="470" as="geometry" />
        </mxCell>
        <mxCell id="_dnJrvxi_9dL4k15Kr0J-5" value="&lt;div style=&quot;font-size: 16px;&quot;&gt;AWS&lt;/div&gt;" style="rounded=0;whiteSpace=wrap;html=1;align=left;labelPosition=center;verticalLabelPosition=middle;verticalAlign=top;fillColor=#dae8fc;strokeColor=#6c8ebf;fontStyle=1;fontSize=16;" parent="1" vertex="1">
          <mxGeometry x="349.72" y="100" width="570.28" height="470" as="geometry" />
        </mxCell>
        <mxCell id="UEzPUAAOIrF-is8g5C7q-128" style="edgeStyle=orthogonalEdgeStyle;rounded=0;orthogonalLoop=1;jettySize=auto;html=1;startArrow=none;startFill=0;endArrow=open;endFill=0;strokeWidth=2;strokeColor=#808080;" parent="1" source="UEzPUAAOIrF-is8g5C7q-109" target="_dnJrvxi_9dL4k15Kr0J-2" edge="1">
          <mxGeometry relative="1" as="geometry">
            <Array as="points">
              <mxPoint x="280" y="250" />
              <mxPoint x="280" y="250" />
            </Array>
            <mxPoint x="320.22" y="521.0999999999999" as="sourcePoint" />
            <mxPoint x="429.22" y="436.5" as="targetPoint" />
          </mxGeometry>
        </mxCell>
        <mxCell id="UEzPUAAOIrF-is8g5C7q-109" value="Clientes" style="outlineConnect=0;gradientColor=none;fontColor=#545B64;strokeColor=none;fillColor=#879196;dashed=0;verticalLabelPosition=bottom;verticalAlign=top;align=center;html=1;fontSize=12;fontStyle=1;aspect=fixed;shape=mxgraph.aws4.illustration_desktop;pointerEvents=1;labelBackgroundColor=#ffffff;" parent="1" vertex="1">
          <mxGeometry x="160" y="224.3" width="70" height="63.7" as="geometry" />
        </mxCell>
        <mxCell id="_dnJrvxi_9dL4k15Kr0J-6" value="" style="whiteSpace=wrap;html=1;aspect=fixed;align=left;" parent="1" vertex="1">
          <mxGeometry x="539" y="150" width="370" height="370" as="geometry" />
        </mxCell>
        <mxCell id="_dnJrvxi_9dL4k15Kr0J-3" value="EKS" style="outlineConnect=0;fontColor=#232F3E;gradientColor=#F78E04;gradientDirection=north;fillColor=#D05C17;strokeColor=#ffffff;dashed=0;verticalLabelPosition=bottom;verticalAlign=top;align=center;html=1;fontSize=12;fontStyle=0;aspect=fixed;shape=mxgraph.aws4.resourceIcon;resIcon=mxgraph.aws4.eks;" parent="1" vertex="1">
          <mxGeometry x="539" y="150" width="45" height="45" as="geometry" />
        </mxCell>
        <mxCell id="_dnJrvxi_9dL4k15Kr0J-9" value="Eureka" style="outlineConnect=0;fontColor=#232F3E;gradientColor=none;fillColor=#D05C17;strokeColor=none;dashed=0;verticalLabelPosition=bottom;verticalAlign=top;align=center;html=1;fontSize=12;fontStyle=0;aspect=fixed;pointerEvents=1;shape=mxgraph.aws4.container_2;" parent="1" vertex="1">
          <mxGeometry x="630" y="159.5" width="78" height="50" as="geometry" />
        </mxCell>
        <mxCell id="_dnJrvxi_9dL4k15Kr0J-10" value="Config-Server" style="outlineConnect=0;fontColor=#232F3E;gradientColor=none;fillColor=#D05C17;strokeColor=none;dashed=0;verticalLabelPosition=bottom;verticalAlign=top;align=right;html=1;fontSize=12;fontStyle=0;aspect=fixed;pointerEvents=1;shape=mxgraph.aws4.container_2;" parent="1" vertex="1">
          <mxGeometry x="794" y="159.5" width="78" height="50" as="geometry" />
        </mxCell>
        <mxCell id="_dnJrvxi_9dL4k15Kr0J-15" value="" style="edgeStyle=orthogonalEdgeStyle;rounded=0;orthogonalLoop=1;jettySize=auto;html=1;strokeWidth=2;fillColor=#f5f5f5;strokeColor=#666666;gradientColor=#b3b3b3;" parent="1" source="_dnJrvxi_9dL4k15Kr0J-18" target="_dnJrvxi_9dL4k15Kr0J-9" edge="1">
          <mxGeometry relative="1" as="geometry">
            <mxPoint x="729" y="300.05500000000006" as="sourcePoint" />
            <Array as="points">
              <mxPoint x="730" y="185" />
            </Array>
          </mxGeometry>
        </mxCell>
        <mxCell id="_dnJrvxi_9dL4k15Kr0J-17" value="" style="edgeStyle=orthogonalEdgeStyle;rounded=0;orthogonalLoop=1;jettySize=auto;html=1;strokeWidth=2;fillColor=#f5f5f5;strokeColor=#666666;gradientColor=#b3b3b3;" parent="1" source="_dnJrvxi_9dL4k15Kr0J-18" target="_dnJrvxi_9dL4k15Kr0J-12" edge="1">
          <mxGeometry relative="1" as="geometry">
            <mxPoint x="1010" y="560" as="sourcePoint" />
            <Array as="points">
              <mxPoint x="559" y="470" />
              <mxPoint x="559" y="470" />
            </Array>
          </mxGeometry>
        </mxCell>
        <mxCell id="_dnJrvxi_9dL4k15Kr0J-16" value="" style="edgeStyle=orthogonalEdgeStyle;rounded=0;orthogonalLoop=1;jettySize=auto;html=1;strokeWidth=2;fillColor=#f5f5f5;strokeColor=#666666;gradientColor=#b3b3b3;" parent="1" source="_dnJrvxi_9dL4k15Kr0J-18" target="_dnJrvxi_9dL4k15Kr0J-10" edge="1">
          <mxGeometry relative="1" as="geometry">
            <mxPoint x="729" y="300.05500000000006" as="sourcePoint" />
            <mxPoint x="709" y="237.45480732300598" as="targetPoint" />
            <Array as="points">
              <mxPoint x="770" y="230" />
              <mxPoint x="770" y="230" />
            </Array>
          </mxGeometry>
        </mxCell>
        <mxCell id="_dnJrvxi_9dL4k15Kr0J-18" value="&lt;div&gt;Tarifas-APP&lt;/div&gt;" style="rounded=1;whiteSpace=wrap;html=1;align=center;fontStyle=1;fillColor=#e1d5e7;strokeColor=#9673a6;verticalAlign=top;" parent="1" vertex="1">
          <mxGeometry x="563" y="250" width="230" height="250" as="geometry" />
        </mxCell>
        <mxCell id="_dnJrvxi_9dL4k15Kr0J-20" value="Fila Kafka" style="outlineConnect=0;fontColor=#232F3E;gradientColor=#945DF2;gradientDirection=north;fillColor=#5A30B5;strokeColor=#ffffff;dashed=0;verticalLabelPosition=bottom;verticalAlign=top;align=center;html=1;fontSize=12;fontStyle=0;aspect=fixed;shape=mxgraph.aws4.resourceIcon;resIcon=mxgraph.aws4.managed_streaming_for_kafka;" parent="1" vertex="1">
          <mxGeometry x="440" y="321" width="78" height="78" as="geometry" />
        </mxCell>
        <mxCell id="_dnJrvxi_9dL4k15Kr0J-21" value="" style="edgeStyle=orthogonalEdgeStyle;rounded=0;orthogonalLoop=1;jettySize=auto;html=1;strokeWidth=2;fillColor=#f5f5f5;strokeColor=#666666;gradientColor=#b3b3b3;startArrow=classic;startFill=1;endArrow=none;endFill=0;" parent="1" source="_dnJrvxi_9dL4k15Kr0J-20" target="_dnJrvxi_9dL4k15Kr0J-18" edge="1">
          <mxGeometry relative="1" as="geometry">
            <mxPoint x="720.72" y="540" as="sourcePoint" />
            <mxPoint x="804.72" y="430" as="targetPoint" />
            <Array as="points">
              <mxPoint x="479" y="375" />
            </Array>
          </mxGeometry>
        </mxCell>
        <mxCell id="_dnJrvxi_9dL4k15Kr0J-22" value="Arquitetura da aplicação - Tarifas bancárias APP" style="text;html=1;strokeColor=none;fillColor=none;align=center;verticalAlign=middle;whiteSpace=wrap;rounded=0;fontSize=25;fontStyle=1" parent="1" vertex="1">
          <mxGeometry x="100" y="50" width="820" height="50" as="geometry" />
        </mxCell>
        <mxCell id="_dnJrvxi_9dL4k15Kr0J-24" value="Sistemas legados" style="rounded=1;whiteSpace=wrap;html=1;fontSize=16;align=center;fontStyle=0;fillColor=#d0cee2;strokeColor=#56517e;" parent="1" vertex="1">
          <mxGeometry x="144" y="405.5" width="120" height="60" as="geometry" />
        </mxCell>
        <mxCell id="_dnJrvxi_9dL4k15Kr0J-25" value="" style="edgeStyle=orthogonalEdgeStyle;rounded=0;orthogonalLoop=1;jettySize=auto;html=1;strokeWidth=2;fillColor=#f5f5f5;strokeColor=#666666;gradientColor=#b3b3b3;" parent="1" source="_dnJrvxi_9dL4k15Kr0J-24" target="_dnJrvxi_9dL4k15Kr0J-20" edge="1">
          <mxGeometry relative="1" as="geometry">
            <mxPoint x="889.72" y="401.29999999999995" as="sourcePoint" />
            <mxPoint x="988.72" y="540" as="targetPoint" />
            <Array as="points">
              <mxPoint x="280" y="430" />
              <mxPoint x="280" y="430" />
            </Array>
          </mxGeometry>
        </mxCell>
        <mxCell id="UEzPUAAOIrF-is8g5C7q-142" style="edgeStyle=orthogonalEdgeStyle;rounded=0;orthogonalLoop=1;jettySize=auto;html=1;startArrow=none;startFill=0;endArrow=open;endFill=0;strokeWidth=2;strokeColor=#808080;" parent="1" source="_dnJrvxi_9dL4k15Kr0J-2" target="_dnJrvxi_9dL4k15Kr0J-18" edge="1">
          <mxGeometry relative="1" as="geometry">
            <mxPoint x="507.22" y="410" as="sourcePoint" />
            <mxPoint x="710.22" y="410" as="targetPoint" />
            <Array as="points">
              <mxPoint x="470" y="270" />
              <mxPoint x="470" y="270" />
            </Array>
          </mxGeometry>
        </mxCell>
        <mxCell id="_dnJrvxi_9dL4k15Kr0J-26" value="Splunk" style="shape=image;verticalLabelPosition=bottom;labelBackgroundColor=#ffffff;verticalAlign=top;aspect=fixed;imageAspect=0;image=https://logodix.com/logo/514869.png;" parent="1" vertex="1">
          <mxGeometry x="850" y="423.5" width="46" height="46" as="geometry" />
        </mxCell>
        <mxCell id="_dnJrvxi_9dL4k15Kr0J-2" value="http://grupo1.spec4.mastertech.com.br/app/" style="outlineConnect=0;fontColor=#232F3E;gradientColor=#945DF2;gradientDirection=north;fillColor=#5A30B5;strokeColor=#ffffff;dashed=0;verticalLabelPosition=top;verticalAlign=bottom;align=center;html=1;fontSize=11;fontStyle=1;aspect=fixed;shape=mxgraph.aws4.resourceIcon;resIcon=mxgraph.aws4.route_53;labelPosition=center;" parent="1" vertex="1">
          <mxGeometry x="330" y="228.5" width="78" height="78" as="geometry" />
        </mxCell>
        <mxCell id="CXmAuJca61z1_TWM78E2-6" value="" style="shape=image;html=1;verticalAlign=top;verticalLabelPosition=bottom;labelBackgroundColor=#ffffff;imageAspect=0;aspect=fixed;image=https://cdn3.iconfinder.com/data/icons/social-media-2169/24/social_media_social_media_logo_docker-128.png;fontSize=16;align=center;" parent="1" vertex="1">
          <mxGeometry x="573" y="250" width="38" height="38" as="geometry" />
        </mxCell>
        <mxCell id="CXmAuJca61z1_TWM78E2-7" value="Sistemas modernizados" style="rounded=1;whiteSpace=wrap;html=1;fontSize=16;align=center;fillColor=#dae8fc;strokeColor=#6c8ebf;fontStyle=0" parent="1" vertex="1">
          <mxGeometry x="144" y="330" width="120" height="60" as="geometry" />
        </mxCell>
        <mxCell id="CXmAuJca61z1_TWM78E2-8" value="" style="edgeStyle=orthogonalEdgeStyle;rounded=0;orthogonalLoop=1;jettySize=auto;html=1;strokeWidth=2;fillColor=#f5f5f5;strokeColor=#666666;gradientColor=#b3b3b3;" parent="1" source="CXmAuJca61z1_TWM78E2-7" target="_dnJrvxi_9dL4k15Kr0J-2" edge="1">
          <mxGeometry relative="1" as="geometry">
            <mxPoint x="274" y="609" as="sourcePoint" />
            <mxPoint x="489" y="548" as="targetPoint" />
            <Array as="points">
              <mxPoint x="310" y="360" />
              <mxPoint x="310" y="268" />
            </Array>
          </mxGeometry>
        </mxCell>
        <mxCell id="cFGCObQTcI31k3phspzc-1" value="Internet" style="rounded=0;whiteSpace=wrap;html=1;fillColor=#d5e8d4;strokeColor=#82b366;fontStyle=1;fontSize=14;align=center;" parent="1" vertex="1">
          <mxGeometry x="100" y="580" width="820" height="60" as="geometry" />
        </mxCell>
        <mxCell id="CXmAuJca61z1_TWM78E2-4" value="" style="shape=image;verticalLabelPosition=bottom;labelBackgroundColor=#ffffff;verticalAlign=top;aspect=fixed;imageAspect=0;image=https://d7umqicpi7263.cloudfront.net/img/product/4150105a-5b84-454a-870d-661a806027bf/73c9d79f-27f6-4206-807e-d165d0890662.png;imageBorder=#000000;" parent="1" vertex="1">
          <mxGeometry x="700" y="593.56" width="114" height="32.88" as="geometry" />
        </mxCell>
        <mxCell id="CXmAuJca61z1_TWM78E2-5" value="" style="edgeStyle=orthogonalEdgeStyle;rounded=0;orthogonalLoop=1;jettySize=auto;html=1;strokeWidth=2;fillColor=#f5f5f5;strokeColor=#666666;gradientColor=#b3b3b3;" parent="1" source="_dnJrvxi_9dL4k15Kr0J-18" edge="1" target="CXmAuJca61z1_TWM78E2-4">
          <mxGeometry relative="1" as="geometry">
            <mxPoint x="750" y="357" as="sourcePoint" />
            <Array as="points">
              <mxPoint x="720" y="560" />
              <mxPoint x="720" y="560" />
            </Array>
            <mxPoint x="735" y="708" as="targetPoint" />
          </mxGeometry>
        </mxCell>
        <mxCell id="_dnJrvxi_9dL4k15Kr0J-27" value="" style="edgeStyle=orthogonalEdgeStyle;rounded=0;orthogonalLoop=1;jettySize=auto;html=1;strokeWidth=2;fillColor=#f5f5f5;strokeColor=#666666;gradientColor=#b3b3b3;" parent="1" source="_dnJrvxi_9dL4k15Kr0J-18" target="_dnJrvxi_9dL4k15Kr0J-26" edge="1">
          <mxGeometry relative="1" as="geometry">
            <mxPoint x="686" y="301" as="sourcePoint" />
            <mxPoint x="804.72" y="540" as="targetPoint" />
            <Array as="points">
              <mxPoint x="820" y="447" />
              <mxPoint x="820" y="447" />
            </Array>
          </mxGeometry>
        </mxCell>
        <mxCell id="cFGCObQTcI31k3phspzc-4" value="Cliente" style="rounded=0;whiteSpace=wrap;html=1;fontSize=14;align=center;fontStyle=1;fillColor=none;" parent="1" vertex="1">
          <mxGeometry x="593" y="281.5" width="82" height="60" as="geometry" />
        </mxCell>
        <mxCell id="cFGCObQTcI31k3phspzc-7" value="Tarifa" style="rounded=0;whiteSpace=wrap;html=1;fontSize=14;align=center;fontStyle=1;fillColor=none;" parent="1" vertex="1">
          <mxGeometry x="593" y="409.5" width="82" height="60" as="geometry" />
        </mxCell>
        <mxCell id="cFGCObQTcI31k3phspzc-8" value="Movto" style="rounded=0;whiteSpace=wrap;html=1;fontSize=14;align=center;fontStyle=1;fillColor=none;" parent="1" vertex="1">
          <mxGeometry x="593" y="345.5" width="82" height="60" as="geometry" />
        </mxCell>
        <mxCell id="cFGCObQTcI31k3phspzc-10" value="Produto" style="rounded=0;whiteSpace=wrap;html=1;fontSize=14;align=center;fontStyle=1;fillColor=none;" parent="1" vertex="1">
          <mxGeometry x="679" y="281.5" width="84" height="60" as="geometry" />
        </mxCell>
        <mxCell id="cFGCObQTcI31k3phspzc-11" value="Contábil" style="rounded=0;whiteSpace=wrap;html=1;fontSize=13;align=center;fontStyle=1;fillColor=none;" parent="1" vertex="1">
          <mxGeometry x="679" y="345.5" width="84" height="60" as="geometry" />
        </mxCell>
        <mxCell id="cFGCObQTcI31k3phspzc-12" value="Front" style="rounded=0;whiteSpace=wrap;html=1;fontSize=14;align=center;fontStyle=1;fillColor=none;" parent="1" vertex="1">
          <mxGeometry x="679" y="409.5" width="84" height="60" as="geometry" />
        </mxCell>
        <mxCell id="cFGCObQTcI31k3phspzc-14" value="" style="group" parent="1" vertex="1" connectable="0">
          <mxGeometry x="362" y="442" width="78" height="78" as="geometry" />
        </mxCell>
        <mxCell id="_dnJrvxi_9dL4k15Kr0J-12" value="" style="outlineConnect=0;fontColor=#232F3E;gradientColor=none;fillColor=#3334B9;strokeColor=none;dashed=0;verticalLabelPosition=bottom;verticalAlign=top;align=center;html=1;fontSize=12;fontStyle=0;aspect=fixed;pointerEvents=1;shape=mxgraph.aws4.rds_mysql_instance;" parent="cFGCObQTcI31k3phspzc-14" vertex="1">
          <mxGeometry width="78" height="78" as="geometry" />
        </mxCell>
        <mxCell id="cFGCObQTcI31k3phspzc-3" value="RDS" style="outlineConnect=0;dashed=0;verticalLabelPosition=bottom;verticalAlign=top;align=center;html=1;shape=mxgraph.aws3.rds;fillColor=#2E73B8;gradientColor=none;fontSize=14;" parent="cFGCObQTcI31k3phspzc-14" vertex="1">
          <mxGeometry x="3" y="35" width="32" height="41" as="geometry" />
        </mxCell>
      </root>
    </mxGraphModel>
  </diagram>
</mxfile>
